STA2453proj1
…
# most of the neighbourhoods are matched
df_rent2 %>%
  filter(locality_name == "Toronto") %>%
  group_by(neighbourhood_name, index) %>%
  summarise(n=n())

## `summarise()` regrouping output by 'neighbourhood_name' (override with `.groups` argument)

## # A tibble: 141 x 3
## # Groups:   neighbourhood_name [141]
##    neighbourhood_name           index           n
##    <chr>                        <chr>       <int>
##  1 Agincourt North              scarborough     5
##  2 Agincourt South-Malvern West scarborough    49
##  3 Alexandra Park               downtown        9
##  4 Annex - U of T               downtown       31
##  5 Banbury | Don Mills          north_york     61
##  6 Bathurst Manor               north_york     15
##  7 Bay St. Corridor             downtown      916
##  8 Bayview Village              north_york    221
##  9 Bayview Woods-Steeles        north_york     15
## 10 Bedford Park-Nortown         north_end       6
## # ... with 131 more rows
…
